<?xml version="1.0" encoding="utf-8"?>
<!-- Generator: Adobe Illustrator 24.1.3, SVG Export Plug-In . SVG Version: 6.00 Build 0)  -->
<svg version="1.1" id="Layer_1" xmlns="http://www.w3.org/2000/svg" xmlns:xlink="http://www.w3.org/1999/xlink" x="0px" y="0px"
	 viewBox="0 0 283.46 283.46" style="enable-background:new 0 0 283.46 283.46;" xml:space="preserve">
<style type="text/css">
	.st0{clip-path:url(#SVGID_2_);fill:#FAA71A;}
</style>
<g>
	<defs>
		<rect id="SVGID_1_" x="34.78" y="8.09" width="213.91" height="267.29"/>
	</defs>
	<clipPath id="SVGID_2_">
		<use xlink:href="#SVGID_1_"  style="overflow:visible;"/>
	</clipPath>
	<path class="st0" d="M141.73,163.77c58.97,0,106.95,47.98,106.95,106.95c0,2.57-2.08,4.66-4.64,4.66H39.43
		c-2.57,0-4.64-2.09-4.64-4.66C34.79,211.75,82.77,163.77,141.73,163.77"/>
	<path class="st0" d="M141.73,8.09c-35.48,0-64.25,28.77-64.25,64.25s28.77,64.23,64.25,64.23s64.25-28.76,64.25-64.23
		S177.21,8.09,141.73,8.09"/>
</g>
</svg>
