<?xml version="1.0" encoding="utf-8"?>
<!-- Generator: Adobe Illustrator 24.1.3, SVG Export Plug-In . SVG Version: 6.00 Build 0)  -->
<svg version="1.1" id="Layer_1" xmlns="http://www.w3.org/2000/svg" xmlns:xlink="http://www.w3.org/1999/xlink" x="0px" y="0px"
	 viewBox="0 0 283.46 283.46" style="enable-background:new 0 0 283.46 283.46;" xml:space="preserve">
<style type="text/css">
	.st0{fill:#FAA71A;}
	.st1{clip-path:url(#SVGID_2_);fill:#FAA71A;}
</style>
<polygon class="st0" points="99.2,264.41 130.65,232.96 99.2,201.51 "/>
<polygon class="st0" points="110.29,275.49 173.18,275.49 141.73,244.05 "/>
<polygon class="st0" points="110.28,190.43 141.73,221.87 173.18,190.43 "/>
<polygon class="st0" points="152.81,232.96 184.26,264.41 184.26,201.51 "/>
<g>
	<defs>
		<rect id="SVGID_1_" x="7.98" y="7.98" width="267.51" height="267.51"/>
	</defs>
	<clipPath id="SVGID_2_">
		<use xlink:href="#SVGID_1_"  style="overflow:visible;"/>
	</clipPath>
	<path class="st1" d="M174.75,116.55c0,4.34-3.51,7.84-7.83,7.84h-50.37c-4.32,0-7.83-3.51-7.83-7.84V66.19
		c0-4.34,3.51-7.84,7.83-7.84h50.37c4.32,0,7.83,3.51,7.83,7.84V116.55z M274.89,138.74L238.01,49.7c-0.8-1.91-2.32-3.44-4.24-4.23
		L144.73,8.58c-1.92-0.79-4.07-0.79-6,0L49.69,45.47c-1.92,0.79-3.44,2.32-4.24,4.23L8.58,138.74c-1,2.41-0.73,5.18,0.73,7.36
		s3.9,3.48,6.51,3.48h17.35v118.08c0,4.32,3.51,7.83,7.83,7.83h42.53V182.6c0-4.34,3.52-7.84,7.84-7.84H192.1
		c4.32,0,7.83,3.51,7.83,7.84v92.89h42.54c4.32,0,7.83-3.51,7.83-7.83V149.57h17.35c2.61,0,5.06-1.31,6.51-3.48
		S275.89,141.15,274.89,138.74"/>
</g>
<rect x="124.38" y="74.02" class="st0" width="34.7" height="34.7"/>
</svg>
