<?xml version="1.0" encoding="utf-8"?>
<!-- Generator: Adobe Illustrator 22.0.1, SVG Export Plug-In . SVG Version: 6.00 Build 0)  -->
<svg version="1.1" id="Layer_1" xmlns="http://www.w3.org/2000/svg" xmlns:xlink="http://www.w3.org/1999/xlink" x="0px" y="0px"
	 viewBox="0 0 50 50" style="enable-background:new 0 0 50 50;" xml:space="preserve">
<style type="text/css">
	.st0{clip-path:url(#SVGID_2_);fill:#FDA600;}
	.st1{fill:#FFFFFF;}
	.st2{fill:#B6B7B8;}
	.st3{clip-path:url(#SVGID_4_);}
	.st4{fill:#FEA700;}
	.st5{clip-path:url(#SVGID_6_);}
	.st6{fill:none;stroke:#24272A;stroke-width:3.5331;stroke-linecap:round;stroke-linejoin:round;}
	.st7{clip-path:url(#SVGID_8_);fill:none;stroke:#24272A;stroke-width:3.5331;stroke-linecap:round;stroke-linejoin:round;}
	.st8{clip-path:url(#SVGID_10_);fill:#888A8C;}
	.st9{clip-path:url(#SVGID_12_);fill:#888A8C;}
	.st10{clip-path:url(#SVGID_14_);fill:#888A8C;}
	.st11{clip-path:url(#SVGID_16_);}
	.st12{clip-path:url(#SVGID_18_);fill:#24272A;}
	.st13{clip-path:url(#SVGID_20_);fill:none;stroke:#FFFFFF;stroke-width:5.1405;stroke-linecap:round;stroke-linejoin:round;}
	.st14{clip-path:url(#SVGID_22_);}
	.st15{fill:#24272A;}
	.st16{clip-path:url(#SVGID_24_);fill:#B6B7B8;}
	.st17{clip-path:url(#SVGID_24_);fill:none;stroke:#B6B7B8;stroke-width:0.372;stroke-miterlimit:10;}
	.st18{clip-path:url(#SVGID_26_);fill:#B6B7B8;}
	.st19{clip-path:url(#SVGID_28_);}
	.st20{fill:#888A8C;}
	.st21{clip-path:url(#SVGID_30_);}
	.st22{clip-path:url(#SVGID_32_);fill:#24272A;}
	.st23{fill:#231F20;}
	.st24{fill:#96262C;}
</style>
<g>
	<path class="st4" d="M32,22.6c-2.1,1.5-4.9,1.5-7,0c-2.1,1.5-4.9,1.5-7,0c-2.1,1.6-5,1.6-7,0v0v15.2c0,1.9,1.6,3.5,3.5,3.5h5.9
		V28.5c0-0.6,0.5-1.2,1.2-1.2h7c0.6,0,1.2,0.5,1.2,1.2v12.9h5.9c1.9,0,3.5-1.6,3.5-3.5V22.7v0C37,24.2,34.1,24.2,32,22.6"/>
	<path class="st4" d="M10.9,18c0,1.9,1.6,3.5,3.5,3.5c1,0,2-0.4,2.6-1.2c0.5-0.5,1.2-0.5,1.7-0.1c0,0,0,0,0.1,0.1
		c1.3,1.5,3.5,1.6,5,0.3c0.1-0.1,0.2-0.2,0.3-0.3c0.5-0.5,1.2-0.5,1.7-0.1c0,0,0,0,0.1,0.1c1.3,1.5,3.5,1.6,5,0.3
		c0.1-0.1,0.2-0.2,0.3-0.3c0.5-0.5,1.2-0.5,1.7-0.1c0,0,0,0,0.1,0.1c0.7,0.8,1.6,1.2,2.6,1.2c1.9,0,3.5-1.6,3.5-3.5H10.9z"/>
	<path class="st4" d="M39,9.4c-0.2-0.5-0.6-0.8-1.1-0.8h-4.7H12.1c-0.5,0-1,0.3-1.1,0.8l-2.1,6.2h24.3h7.9L39,9.4z"/>
</g>
</svg>
