<?xml version="1.0" encoding="utf-8"?>
<!-- Generator: Adobe Illustrator 22.0.1, SVG Export Plug-In . SVG Version: 6.00 Build 0)  -->
<svg version="1.1" id="Layer_1" xmlns="http://www.w3.org/2000/svg" xmlns:xlink="http://www.w3.org/1999/xlink" x="0px" y="0px"
	 viewBox="0 0 50 50" style="enable-background:new 0 0 50 50;" xml:space="preserve">
<style type="text/css">
	.st0{clip-path:url(#SVGID_2_);fill:#FDA600;}
	.st1{fill:#FFFFFF;}
	.st2{fill:#B6B7B8;}
	.st3{clip-path:url(#SVGID_4_);}
	.st4{fill:#FEA700;}
	.st5{clip-path:url(#SVGID_6_);}
	.st6{fill:none;stroke:#24272A;stroke-width:3.5331;stroke-linecap:round;stroke-linejoin:round;}
	.st7{clip-path:url(#SVGID_8_);fill:none;stroke:#24272A;stroke-width:3.5331;stroke-linecap:round;stroke-linejoin:round;}
	.st8{clip-path:url(#SVGID_10_);fill:#888A8C;}
	.st9{clip-path:url(#SVGID_12_);fill:#888A8C;}
	.st10{clip-path:url(#SVGID_14_);fill:#888A8C;}
	.st11{clip-path:url(#SVGID_16_);}
	.st12{clip-path:url(#SVGID_18_);fill:#24272A;}
	.st13{clip-path:url(#SVGID_20_);fill:none;stroke:#FFFFFF;stroke-width:5.1405;stroke-linecap:round;stroke-linejoin:round;}
	.st14{clip-path:url(#SVGID_22_);}
	.st15{fill:#24272A;}
	.st16{clip-path:url(#SVGID_24_);fill:#B6B7B8;}
	.st17{clip-path:url(#SVGID_24_);fill:none;stroke:#B6B7B8;stroke-width:0.372;stroke-miterlimit:10;}
	.st18{clip-path:url(#SVGID_26_);fill:#B6B7B8;}
	.st19{clip-path:url(#SVGID_28_);}
	.st20{fill:#888A8C;}
	.st21{clip-path:url(#SVGID_30_);}
	.st22{clip-path:url(#SVGID_32_);fill:#24272A;}
	.st23{fill:#231F20;}
	.st24{fill:#96262C;}
</style>
<g>
	<path class="st15" d="M20.1,33.5c1.8,0,3.3,1.5,3.3,3.3s-1.5,3.3-3.3,3.3s-3.3-1.5-3.3-3.3S18.3,33.5,20.1,33.5"/>
	<path class="st15" d="M31.5,33.5L31.5,33.5c-1.8,0-3.3,1.5-3.3,3.3s1.5,3.3,3.3,3.3c1.8,0,3.3-1.5,3.3-3.3S33.3,33.5,31.5,33.5"/>
	<path class="st15" d="M36.3,31.3c0.6,0,1.1-0.3,1.3-0.9l4.5-11.4c0.3-0.7-0.1-1.5-0.8-1.8c-0.2-0.1-0.3-0.1-0.5-0.1H15L13.9,11
		c-0.1-0.7-0.7-1.1-1.4-1.1H9.2c-0.7,0-1.4,0.6-1.4,1.3c0,0.8,0.6,1.4,1.4,1.4h2.3l2.9,17.2c0.2,0.9,0.9,1.6,1.9,1.6L36.3,31.3z"/>
</g>
</svg>
